{
	"main_script": "image360.js",
	"icon": "image360.png",
	"width": 800,
	"height": 800,
	"resize": "free",
	"animation": true,
	"dependencies": [
		"/lib/three.min.js"
	],
	"load": {
	},
	"title": "image360",
	"version": "1.0.0",
	"fileTypes": [ "360", "jpeg", "png", "jpg" ],
	"directory": "360s",
	"description": "SAGE2 application displaying 360 image onto a sphere. Loads files with the extension .360, in equirectangular projection at a 2:1 landscape aspect ratio",
	"keywords": [ "application", "image360", "pano", "panorama" ],
	"author": "Luc Renambot <renambot@gmail.com>",
	"license": "SAGE2-Software-License"
}
