{
	"main_script": "atom_smasher.js",
	"icon": "threejs.png",
	"width": 1200,
	"height": 1200,
	"animation": true,
	"dependencies": [
		"scripts/three.min.js"
	],
	"title": "Atom Smasher",
	"version": "1.0.0",
	"description": "Application simulating particle collisions using Three.js rendering package",
	"keywords": [ "application", "three.js", "particle", "animation", "3d" ],
	"author": "Todd Margolis <tmargo@gmail.com>",
	"license": "UCSD"
}
