{
	"main_script": "skeletonWebviewApp.js",
	"icon": "skeletonWebviewApp.png",
	"width": 1280,
	"height": 720,
	"resize": "free",
	"animation": false,
	"dependencies": [
		"WebviewAppCore.js"
	],
	"load": {
		"url": "/uploads/web/index.html",
		"favicon": "",
		"zoom": 1.2,
		"mode": "desktop"
	},
	"title": "skeletonWebviewApp",
	"version": "0.1",
	"description": "SAGE2 application skeletonWebviewApp",
	"keywords": [ "sage2", "skeletonWebviewApp" ],
	"author": "Dylan Kobayashi <dylank@hawaii.edu>",
	"license": "SAGE2-Software-License"
}
