{
	"main_script": "ParaSAGE.js",
	"icon": "pv.png",
	"width": 1000,
	"height": 1000,
	"animation": false,
	"dependencies": [
		"scripts/autobahn.min.js"
	],
	"title": "ParaSAGE",
	"version": "1.0.0",
	"description": "ParaSAGE connects to a ParaViewWeb server to display and allow interaction of visualizations from ParaView in SAGE2",
	"keywords": [ "application", "visualization", "render", "3dmodel", "ParaView", "ParaViewWeb" ],
	"author": "Dylan Kobayashi <dylank@hawaii.edu>",
	"license": "SAGE2-Software-License"
}
